{
    "id": "",
    "timestamp": "",
    "timestamp2": "",
    "ConversationTime": "",
    "usecases": [],
    "QnaMakerQuestions": [],
    "BusinessCenterDomainSearch": [],
    "BusinessCenterZipSearch": [],
    "BusinessCenterSearch": [],
    "VettedUser": "",
    "CertifiedMBE": "",
    "YearsInBusiness": "",
    "FullTimeEmployees": "",
    "Industry": "",
    "HighGrowthPotential": "",
    "PotentialDetails": "",
    "StrategicOption": "",
    "StrategicTier": "",
    "feedback": ""
}