﻿#,Domain,Location ,Center Name,About this Center,Annual Analysis,Operated By,Operator's Name,Operator Address,City,ST,Zip,5-Digit Zip,Operator's E-mail,Operator's #,Operator's # Standard,Fax #,,Center Address,City,ST,Zip,Project Director,PD's E-mail,PD's #,Website,Domain Notes
1,General,"Atlanta, Georgia",Atlanta MBDA Business Center,"Operated by Georgia Tech’s Enterprise Innovation Institute, the MBDA Business Center-Atlanta wants to facilitate your company’s growth by connecting you with resources to help your business succeed. Strategically positioned within the Enterprise Innovation Institute, we are surrounded by a wealth of entrepreneurial services and resources your company can access. Through our outreach, resources, and efforts, we have assisted thousands of entrepreneurs.

Our Center enjoys affiliation with some of Georgia’s leading MBEs, corporations, and organizations, many of which have become our clients and partners. Although the Center is physically located in Atlanta, Georgia, we can assist clients anywhere in the United States.

In addition to the Core Business Services, the center specializes in helping clients with improving processes and implementing environmental management, sustainability programs, and ISO 9001/ ISO 14000 certifications.",https://www.mbda.gov/sites/mbda.gov/files/2018-small-business-profiles-ga.pdf,Georgia Tech Research Corporation,Donna Ennis,"75 5th Street, NW, Suite 300",Atlanta,GA,30308,30308,donna.ennis@innovate.gatech.edu,404-894-2096,404-894-2096,404-894-1192,,"75 5th Street, NW, Suite 300",Atlanta,GA,30308,Donna Ennis,donna.ennis@innovate.gatech.edu,404-894-2096,https://mbdabusinesscenter-atlanta.org/,technical assistance
2,Manufacturing,"Atlanta, Georgia",Atlanta MBDA Advanced Manufacturing Project,"The Atlanta MBDA Advanced Manufacturing Center, operated by Georgia Tech Research Corporation, provides targeted assistance to minority manufacturers to increase the number of “Made in America” products that can be sold domestically and globally. The center is also designed to help identify, screen, promote, and refer minority business enterprises (MBEs) to specialized advanced manufacturing programs, and provide technical and business development services.",https://www.mbda.gov/sites/mbda.gov/files/2018-small-business-profiles-ga.pdf,Georgia Tech Research Corporation,Donna Ennis,"75 5th Street, NW, Suite 300",Atlanta,GA,30308,30308,donna.ennis@innovate.gatech.edu,404-894-2096,404-894-2096,404-894-1192,,"75 5th Street, NW, Suite 300",Atlanta,GA,30308,Donna Ennis,donna.ennis@innovate.gatech.edu,404-894-2096,https://nationalmbemanufacturers.org/,access to corporate supply chains
3,General,"Baltimore, Maryland",Baltimore MBDA Business Center,"The MBDA Business Center located in Baltimore, MD is operated by the L. S. Caldwell & Associates, Inc. The center is part of a national network of funded centers located in major cities throughout the United States. The center works with minority business enterprises to generate increased financing and contract opportunities and to create and retain jobs.",https://www.mbda.gov/sites/mbda.gov/files/2018-small-business-profiles-md.pdf,"L. S. Caldwell & Associates, Inc.",Clement E. Harvey,"5427 14th Street, NW",Washington,DC,20011,20011,ceharvey@lscaldwell.com,202-587-7800,202-587-7800,202-587-7801,,"1 North Charles Street, 
Suite 707",Baltimore,MD,21202,Gianna Hylton,ghylton@baltimorembdacenter.com,667-303-3530,https://baltimorembdacenter.com/,
4,Manufacturing,"Baltimore, Maryland",Baltimore MBDA Advanced Manufacturing Project,"The Baltimore MBDA Advanced Manufacturing Center, operated by the City of Baltimore, provides targeted assistance to minority manufacturers to increase the number of “Made in America” products that can be sold domestically and globally. The center is also designed to help identify, screen, promote, and refer minority business enterprises (MBEs) to specialized advanced manufacturing programs, and provide technical and business development services.",https://www.mbda.gov/sites/mbda.gov/files/2018-small-business-profiles-md.pdf,City of Baltimore,Paul Taylor,"100 N. Holliday Street, Rm. 344",Baltimore,MD,21202,21202,P.taylor@baltimorecity.gov,410-396-3818,410-396-3818,410-528-1671,,"1101 East 33rd Street, Suite 308",Baltimore,MD,21201,N. Scott Phillips,nsphillips@baltimorembda.com,443-401-0242,https://www.mbda.gov/businesscenters/baltimoreadvmfg,made in America products
5,General,"Chicago, Illinois ",Chicago MBDA Business Center ,"The MBDA Business Center - Chicago is funded by the U.S. Department of Commerce, Minority Business Development Agency (MBDA) and is operated by the Chicago Minority Supplier Development Council, Inc. (ChicagoMSDC), a premier organization that for 50 years has been dedicated to the development of minority-owned business enterprises (MBEs).

The MBDA Business Center - Chicago seeks to develop alliances with local, state, and federal government agencies, major corporations, banks, financial resources and the minority business community to create larger, more strategic minority entrepreneurs.",https://www.mbda.gov/sites/mbda.gov/files/2018-small-business-profiles-il.pdf,"Chicago Minority Supplier Development Council, Incorporated","David Thomas, Interim ","216 W. Jackson Boulevard, Suite 600",Chicago,IL,60606,60606,dthomas@chicagombdacenter.com ,312-755-2563,312-755-2563,312-755-8891,,"216 W. Jackson Boulevard, Suite 600",Chicago,IL,60606,David Thomas,dthomas@chicagombdacenter.com,312-755-2563,https://www.mbda.gov/businesscenters/chicago,
6,Exporting,"Chicago, Illinois ",Chicago MBDA Export Project,"The Chicago MBDA Export Center, operated by Chicago Minority Supplier Development Council, Incorporated, provides technical assistance and business development services to generate increased financing, contract opportunities, and greater access to new and global markets for minority business enterprises (MBEs). The Center is also designed to help identify, screen, promote, and refer MBEs to exporting resources, and to engage in and/or expand exporting.",https://www.mbda.gov/sites/mbda.gov/files/2018-small-business-profiles-il.pdf,"Chicago Minority Supplier Development Council, Incorporated","David Thomas, Interim ","216 W. Jackson Boulevard, Suite 600",Chicago,IL,60606,60606,dthomas@chicagombdacenter.com ,312-755-2563,312-755-2563,312-755-8891,,"216 W. Jackson Boulevard, Suite 600",Chicago,IL,60606,Patricia Hanes ,phanes@chicagombdaexportcenter.com,312-755-2553,"https://www.mbda.gov/businesscenters/chicagoexport#:~:text=The%20Chicago%20MBDA%20Export%20Center,minority%20business%20enterprises%20(MBEs).",refers mbes to exporting services
7,General,"Columbia, South Carolina",South Carolina MBDA Business Center,"Columbia’s MBDA Business Center, operated by DESA Inc. is part of a national network of funded Centers located in major cities through the United States. Through its partnership with MBDA, the Center champions economic parity for minority-owned businesses in and around South Carolina.

To help minority-owned firms compete in the global market and to stimulate the economy through job creation, the Center assists Minority Business Enterprises (MBEs) that generate a minimum of $1M in annual revenue with access to contracts, access to global markets, access to capital, strategic business counseling and marketing assistance.",https://www.mbda.gov/sites/mbda.gov/files/2018-small-business-profiles-sc.pdf,DESA Inc.,Diane Sumpter,400 Percival Road,Columbia,SC,29206,29206,dianes@desainc.com,803-743-1142,803-743-1142,803-743-1161,,400 Percival Rd.,Columbia,SC,29206,Camille Shaw,"Cshaw@columbiambda
center.com",803-743-1152,https://columbiambdacenter.com/,co-operated by DESA
8,N/A,"Dallas, Texas",Dallas MBDA Business Center,"Whether it's financing, organizational growth, bonding, certification or business-to-business partnering, MBDA Business Center Dallas staff can determine the right resources for your business. MBDA and the centers serve minority entrepreneurs who are pursuing growth in size, scale and capacity. Staffed by business specialists who have the knowledge and practical experience needed to run successful and profitable businesses.

The MBDA Business Center Dallas assist Minority Owned Business retain and create jobs, obtain procurement contracts and financing for working capital and asset acquisition. The MBDA Business Center Dallas is operated by the Dallas/Fort Worth Minority Supplier Development Council and is funded by the U.S. Department of Commerce Minority Business Development Agency (MBDA).",https://www.mbda.gov/sites/mbda.gov/files/2018-small-business-profiles-tx.pdf,Dallas Fort Worth Minority Supplier Development Council,Margo Posey,"8828 N. Stemmons Freeway,                   Suite 550",Dallas,TX,75207,75207,"margo@dfwmsdc.com
admin@dfwmsdc.com",214-630-0747,214-630-0747,214-637-2241,,"8828 N. Stemmons Freeway, Suite 550 B",Dallas,TX,75247,Ray Cervantes,Ray@mbdadallas.com,214-920-2436,https://www.dfwmsdc.com,facilitate business connections by buying entity members
9,N/A,"Denver, Colorado",Denver MBDA Business Center,"Operated by the Rocky Mountain Minority Supplier Development Council  the Denver MBDA Business Center facilitates greater access to the goods and services of minority-owned businesses for diverse corporate and government entities, thus fostering the development of lasting and mutually beneficial business relationships.

The Rocky Mountain MSDC supports the development of minority-owned business enterprises in Colorado, Wyoming, Utah, and New Mexico and further provides business education and certification assistance.",https://www.mbda.gov/sites/mbda.gov/files/2018-small-business-profiles-co.pdf,Rocky Mountain Minority Supplier Development Council,Stan Sena,"6025 S. Quebec Street,                     Suite 135  ",Centennial,CO,80111,80111,stan@mpmsdc.org,303-623-3037,303-623-3037,303-595-0027,,"6025 S. Quebec Street, Suite 135  ",Centennial,CO,80111,Randy McCall,rmccall@denvermbdacenter.com,303-623-3105 Ext. 208,https://www.mbda.gov/businesscenters/denver,supplies greater access to goods and services 
10,General,"Detroit, Michigan",Detroit MBDA Business Center,The MBDA Business Center located in Detroit is operated by Michigan Minority Supplier Development Council. The center is part of a national network of funded centers located in major cities throughout the United States. The MBDA Business Center Detroit can open doors to greater opportunity for strong companies looking to achieve the next level of success.,https://www.mbda.gov/sites/mbda.gov/files/2018-small-business-profiles-mi.pdf,Michigan Minority Supplier Development Council (MMSDC),Michelle Sourie Robinson,"100 River Place, Suite 300",Detroit,MI,48207,48207,msrobinson@minoritysupplier.org,313-873-3201,313-873-3201,313-873-1798,,"100 River Place, Suite 300",Detroit,MI,48207,Bill Grice,bgrice@detroitmbdacenter.com,313-873-1819,https://www.mbda.gov/businesscenters/detroit,
11,General,"Detroit, Michigan",Detroit MBDA Advanced Manufacturing Project,"The Detroit MBDA Advanced Manufacturing Center, operated by Michigan Minority Supplier Development Council (MMSDC), provides targeted assistance to minority manufacturers to increase the number of “Made in America” products that can be sold domestically and globally.

The center is also designed to help identify, screen, promote, and refer minority business enterprises (MBEs) to specialized advanced manufacturing programs, and provide technical and business development services.",https://www.mbda.gov/businesscenters/atlantaadvmfg,Michigan Minority Supplier Development Council (MMSDC),Michelle Sourie Robinson,"100 River Place, Suite 300",Detroit,MI,48207,48207,msrobinson@minoritysupplier.org,313-873-3201,313-873-3201,313-873-1798,,"100 River Place, Suite 300",Detroit,MI,48207,Janice Thomas,jthomas@detroitmbdacenter.com,313-873-3615,https://www.mbda.gov/businesscenters/detroit,
12,General,"El Paso, Texas",El Paso MBDA Business Center,"The MBDA Business Center located in El Paso, TX is operated by the El Paso Hispanic Chamber of Commerce.  The center is part of a national network of funded centers located in major cities throughout the United States.  The center works with minority business enterprises to generate increased financing and contract opportunities and to create and retain jobs.",https://www.mbda.gov/sites/mbda.gov/files/2018-small-business-profiles-tx.pdf,El Paso Hispanic Chamber of Commerce,Cindy Ramos-Davidson,2401 East Missouri Avenue,El Paso,TX,79903,79903,cindyramosdavidson@ephcc.org,915-566-4066,915-566-4066,915-566-9714,,2401 East Missouri Avenue,El Paso,TX,79903,Terri Reed,treed@elpasoMBDACenter.com,915-351-6232,https://ephcc.org/,El Paso Border Metroplex
13,General,"Honolulu, Hawaii",Honolulu MBDA Business Center,"The MBDA Business Center located in Honolulu, HI is operated by the University of Hawaii. The center is part of a national network of funded centers located in major cities throughout the United States.

The MBDA Business Center Honolulu fosters the establishment and growth of minority-owned businesses in America.The center works with minority business enterprises to generate increased financing and contract opportunities and to create and retain jobs.

The Center is a program of the University of Hawai`i system, partnering with the University of Hawai`i at Manoa and the Shidler College of Business. Our mission is to cultivate and support the entrepreneurial spirit in the Hawaii minority community: its individuals, businesses and organizations.",https://www.mbda.gov/sites/mbda.gov/files/2018-small-business-profiles-hi.pdf,University of Hawaii,Dr. Avegalio Failautusi,"University of Hawai'I, Office of Research Services, 2440 Campus Road, Box 368, Sinclair Library #1",Honolulu,HI,96822,96822,fa@hawaii.edu,808-689-2324 ,808-689-2324 ,808-956-9081,,"2404 Maile Way, A414b",Honolulu,HI,96822,Dana Hauanio,dhauanio@honolulumbdacenter.com,808-956-0850,https://honolulumbdacenter.com/,
14,General,"Houston, Texas",Houston MBDA Business Center,"The Houston MBDA Business Center is operated by Houston Community College. The program is funded, in part, by the U.S. Department of Commerce through the Minority Business Development Agency and has been hosted at Houston Community College since September 2013. MBDA Business Centers are staffed by business specialists who help minority businesses access procurement opportunities, markets and capital.",https://www.mbda.gov/sites/mbda.gov/files/2018-small-business-profiles-tx.pdf,Houston Community College,"Maya Durnovo, Ed.D, ","3100 Main Street,                            Suite 12E14 ",Houston,TX,77002,77002,maya.durnovo@hccs.edu,"713-718-8267,            713-320-6025-M",713-718-8970,713-718-5048,,"2302 Fannin Street, Suite 165",Houston,TX,77002,Gabriela Zambrano ,m.zambrano@hccs.edu,"713-718-8972
",https://www.mbda.gov/businesscenters/houston,access to procurement opportunities
15,General,"Manhattan, New York",Manhattan MBDA Business Center,"The MBDA Business Center located in New York, NY is operated by the Business Outreach Center Network. The center is part of a national network of funded centers located in major cities throughout the United States.  The center works with minority business enterprises to generate increased financing and contract opportunities and to create and retain jobs.",https://www.mbda.gov/sites/mbda.gov/files/2018-small-business-profiles-ny.pdf,"Business Outreach Center Network, Inc.",Nancy Carin,85 South Oxford St. ,Brooklyn,NY,11217,11217,ncarin@bocnet.org,917-830-2920,917-830-2920,,,"48 Wall Street, 5th Floor #10 ",New York,NY,10005,Roxanne Neilson,rneilson@bocnet.org,917-830-2920,https://www.mbda.gov/businesscenters/newyorkcity,
16,General,"Memphis, Tennessee",Memphis MBDA Business Center,"The MBDA Business Center located in Memphis, TN is operated by the Mid-South Minority Business Council Continuum (MMBC Continuum). Memphis, and the surrounding Delta region, has a notable minority population with a long history of entrepreneurship and innovation.

The city is also home to corporate giants Fed Ex, AutoZone, International Paper, and several other Fortune 500 companies. The center is part of a national network of funded centers located in major cities throughout the United States. The center works with minority business enterprises to generate increased financing and contract opportunities and to create and retain jobs.",https://www.mbda.gov/sites/mbda.gov/files/2018-small-business-profiles-tn.pdf,"Mid-South Minority Business Council Continuum, Incorporated",Jozelle Luster Booker,"158 Madison Avenue,                         Suite 300 ",Memphis,TN,38103,38103,jbooker@mmbc-memphis.org,901-525-6512,901-525-6512,901-525-5204,,"158 Madison Avenue, Suite 101",Memphis,TN,38103,Wanda Christian,wchristian@mmbc-memphis.org,"(901) 528-1432 (O)
(901) 528-1755 (F)",https://www.mmbc-memphis.org,women and minority businesses
17,Exporting,"Miami, Florida",Miami MBDA Exporting Project,"The Miami MBDA Export Center, operated by M. Gill & Associates, Inc., provides technical assistance and business development services to generate increased financing, contract opportunities, and greater access to new and global markets for minority business enterprises (MBEs).

The Center is also designed to help identify, screen, promote, and refer MBEs to exporting resources, and to engage in and/or expand exporting.",https://www.mbda.gov/sites/mbda.gov/files/2018-small-business-profiles-fl.pdf,"M. Gill & Associates, Inc.",Marie Gill,4770 Biscayne Blvd. Ste. 1050,Miami,FL,33137,33137,marie@mgillonline.com,305-576-7888,305-576-7888,305-576-0089,,"970 S.W. 1st Street, Suite 405",Miami,FL,33130,"Joy Starkey 
",joy@mbdaexport.com ,786-316-0888,https://www.mbdaexport.com/,export development
18,General,"Miami, Florida",Miami MBDA Business Center,"The MBDA Business Center located in Miami, Florida is operated by the Florida State Minority Supplier Development Council.

The center is part of a national network of funded centers located in major cities throughout the United States. The center works with minority business enterprises to generate increased financing and contract opportunities and to create and retain jobs.",https://www.mbda.gov/sites/mbda.gov/files/2018-small-business-profiles-fl.pdf,Florida State Minority Supplier Development Council,Beatrice Louissaint,"9499 NE 2nd Avenue,                      Suite 201 ",Miami,FL,33138,33138,beatrice@fsmsdc.org,305-762-6151,305-762-6151,305-762-6158,,"9499 NE 2nd Avenue, Suite 204 ",Miami,FL,33138,Marie Hyppolite,marie@mbdamiamicenter.com,"305-751-2907/8/9 (O) 
954-433-1006 (M)
305-751-2910 (F)",https://www.mbdamiamicenter.com,
19,General,"Minneapolis, Minnesota",Minneapolis MBDA Business Center,"The Minnesota MBDA Business Center is a part of a nationwide network of thirty-nine centers. The Center is operated by MEDA, a premier organization that has been dedicated to the development of Minority Business Enterprises (MBEs) for more than 40 years. The MBDA is the only federal agency created specifically to foster the growth of minority owned businesses in America.",https://www.sba.gov/sites/default/files/advocacy/2018-Small-Business-Profiles-MN.pdf,Metropolitan Economic Development Association,Dan Holmquist,"1256 Penn Avenue North, Suite 4800",Minneapolis,MN,55411,55411,dholmquist@meda.net,612-259-6572,612-259-6572,612-317-1002,,"1256 Penn Avenue, Suite 4800 ",Minneapolis,MN,55411,George Jacobson,gjacobson@meda.net,"612-259-6564 (O)
612-317-1002 (F)",https://www.meda.net,
20,General,"Pasadena, California",Pasadena MBDA Business Center,"The MBDA Business Center located in Pasadena, CA is operated by the So Cal Corporate Growth Partners. The center is part of a national network of funded centers located in major cities throughout the United States. The center works with minority business enterprises to generate increased financing and contract opportunities and to create and retain jobs.

The Vision of So Cal Corporate Growth Partners is to create hope and empowerment for businesses (primarily minority-owned businesses) by assessing their past benchmarks for restrictions, failures, and successes; then making necessary changes for future prosperity and sustainability.

The Mission of So Cal Corporate Growth Partners is to actively support and strengthen businesses and their communities by acting as an established and trusted conduit to educational, civic, business, financial and global partners.",https://www.mbda.gov/sites/mbda.gov/files/2018-small-business-profiles-ca.pdf,So Cal Corporate Growth Partners,David S. Honda,"177 East Colorado Blvd. Suite 200, Space 2092",Pasadena,CA,91105,91105,David.Honda@sccgp.org,626-922-0529,626-922-0529,951-344-8327,,"177 East Colorado Blvd. Suite 200, Space 2054",Pasadena,CA,91105,Daniel Sieu,dan.sieu@pasadenambdacenter.com,909-315-3339,https://www.mbda.gov/businesscenters/pasadena,financing and contracting
21,General,"Philadelphia, Pennsylvania",Philadelphia MBDA Business Center,"The MBDA Business Center of Pennsylvania, a contract from the U.S. Department of Commerce operated by The Enterprise Center (TEC), is the region’s leader in minority business development. The Pennsylvania MBDA Business Center has generated over $290 million contracts and financing, as well as created hundreds of jobs since 2004, when TEC was initially awarded the federal contract from the U.S. Department of Commerce’s Minority Business Development Agency (MBDA). These contracts represent significant business activity for minority-owned firms in the Greater Philadelphia region.

A unique approach to assessment, service delivery, and continuous improvement has allowed the Pennsylvania MBDA Business Center to secure key allies such as Disney Studios, Sovereign Bank, and CB Richard Ellis. Working with its banking partners, the Pennsylvania MBDA Business Center has facilitated over $30 million in financial transactions for its clients. The center has been integral in positioning firms for contracts by helping entrepreneurs develop business plans, secure financing and craft marketing strategies.",https://www.mbda.gov/sites/mbda.gov/files/2018-small-business-profiles-pa.pdf,The Enterprise Center,Della Clark,4548 Market Street,Philadelphia,PA,19139,19139,dclark@theenterprisecenter.com,215-895-4005,215-895-4005,215-895-4001,,4548 Market Street,Philadelphia,PA,19139,Victoria Hosendorf,vhosendorf@mbc-pa.com,215-895-4046,https://www.mbda.gov/businesscenters/philadelphia,contracting 
22,General,"Phoenix, Arizona",Phoenix MBDA Business Center,"Whether it's financing, organizational growth, bonding, certification or business-to-business partnering, the MBDA Business Center staff can determine the right resources for your business. The Center serves minority entrepreneurs who are pursuing growth in size, scale and capacity.",https://www.mbda.gov/sites/mbda.gov/files/2018-small-business-profiles-az.pdf,Arizona Hispanic Chamber of Commerce,Monica Villalobos,"255 East Osborn Rd.,                             Suite 201",Phoenix,AZ,85012,85012,MonicaV@azhcc.com,602-279-1800 ext. 109,602-279-1800 ext. 113,602-279-8900,,1020 E Missouri Ave,Phoenix,AZ,85014,Alika Kumar,AlikaKumar@phoenixmbdacenter.com,"602-294-6087
623-628-0725 (M)",https://www.phoenixmbdacenter.com,
23,General,"Orlando, Florida",Orlando MBDA Business Center,"The MBDA Business Center located in Orlando, FL is operated by the Florida State Minority Supplier Development Council.  The center is part of a national network of funded centers located in major cities throughout the United States.  The center works with minority business enterprises to generate increased financing and contract opportunities and to create and retain jobs.",https://www.mbda.gov/sites/mbda.gov/files/2018-small-business-profiles-fl.pdf,Southern Florida Minority Supplier Development Council,Beatrice Louissaint,"9499 NE 2nd Avenue,                      Suite 201 ",Miami,FL,33138,33138,beatrice@sfmsdc.org,305-762-6151,305-762-6151,305-762-6158,,"8251 Presidents Drive, Suite 155",Orlando,FL,32809,Retu Jalhan,retu@mbdaorlandocenter.com,(407) 251-7021,https://www.mbdaorlandocenter.com/,
24,General,"San Juan, Puerto Rico",Puerto Rico MBDA Business Center,"MBDA Business Center, Puerto Rico is operated by the the Asociacíon Productos de Puerto Rico covering the entire island.

The main objective is to provide technical assistance to companies so they can achieve greater participation in local and global markets using strategic growth alternatives, such as mergers, acquisitions, and joint ventures.

As a direct result of our services entrepreneurs can create and retain jobs and have greater access to capital and business opportunities.",https://www.mbda.gov/sites/mbda.gov/files/2018-small-business-profiles-puerto-rico.pdf,"Asociacion Productos de Puerto Rico, Incorporated",Liliana Cubano,"406 Capitan Espada Street, Urb. El Vedado",San Juan,PR,918,918,"Presidente@Hechoen.pr
lc@kreativeadpr.com","787-753-8484
787-717-4755-M",787-753-8484,787-753-0855,," F. D. Roosevelt 525; Plaza Las Americas, 3rd Level, Suite 610 ",San Juan,PR,918,Teresa Berrios,tberrios@puertoricombdacenter.com,787-753-8484            787-765-7820,http://www.puertoricombdacenter.com/,
25,Exporting,"Sacramento, California",California MBDA Exporting Project,"The Sacramento MBDA Export Center, operated by California Asian Pacific Chamber of Commerce, provides technical assistance and business development services to generate increased financing, contract opportunities, and greater access to new and global markets for minority business enterprises (MBEs). The Center is also designed to help identify, screen, promote, and refer MBEs to exporting resources, and to engage in and/or expand exporting.",https://www.mbda.gov/sites/mbda.gov/files/2018-small-business-profiles-ca.pdf,California Asian Pacific Chamber of Commerce,Patricia Fong Kushida,"2012 H Street, Suite 101",Sacramento,CA,95811,95811,patfongkushida@calasiancc.org,916-446-7883,916-446-7883,916-446-7098,,2331 Alhambra Blvd. Suite 100,Sacramento,CA,95817,Maye C. Saephanh,msaephanh@calasiancc.org,"916-446-7883(office)
916-389-7479(Direct)",https://www.calasiancc.org,China and Korea
26,General,"San Antonio, Texas",San Antonio MBDA Business Center,"The San Antonio MBDA Business Center is dedicated to helping the minority entrepreneurs flourish and grow in today's marketplace.

Part of the UTSA Institute for Economic Development and the MBDA network, the San Antonio Business Center has a proven track record of service and advocacy in the minority business community. In operation since 1982, the center has served over 3,500 clients, assisted in procuring over $170 million in contracts, and aided in securing over $185 million in loans and bonds.

The center and its staff have received numerous awards, citations, and proclamations from a variety of organizations over the years in recognition of their outstanding support of the minority community. Most importantly, our clients often refer new businesses and individuals to the Business Center.

The center continues to expand its comprehensive network for outreach and referrals with its strategic partners in the business community. These include banks, loan officers, federal and municipal agency staff, chambers of commerce, and private sector companies.",https://www.mbda.gov/sites/mbda.gov/files/2018-small-business-profiles-tx.pdf,University of Texas at San Antonio,Albert Salgado,501 West Cesar E. Chavez Boulevard ,San Antonio,TX,78207,78207,Albert.Salgado@utsa.edu,210-458-2742,210-458-2742,210-458-2481,,"501 West Cesar E. Chavez Boulevard, Suite 3.324B",San Antonio,TX,78207,Orestes Hubbard,orestes.hubbard@utsa.edu,210-458-2480,https://sanantoniombdacenter.com/,management assistance 
27,Manufacturing,"San Antonio, Texas",San Antonio MBDA Advanced Manufacturing Project ,"The San Antonio MBDA Advanced Manufacturing Center, operated by the Institute for Economic Development at The University of Texas at San Antonio, provides targeted assistance to minority manufacturers to increase the number of “Made in America” products that can be sold domestically and globally. The center is also designed to help identify, screen, promote, and refer minority business enterprises (MBEs) to specialized advanced manufacturing programs, and provide technical and business development services.",https://www.mbda.gov/sites/mbda.gov/files/2018-small-business-profiles-tx.pdf,University of Texas at San Antonio,Albert Salgado,501 West Cesar E. Chavez Boulevard ,San Antonio,TX,78207,78207,Albert.Salgado@utsa.edu,210-458-2742,210-458-2742,210-458-2481,,"501 West Cesar E. Chavez Boulevard, Suite 3.324B",San Antonio,TX,78207,Javidreza Hajvaziri,Javidreza.Hajvaziri@utsa.edu,210-458-3269,https://www.sanantoniombdacenter.com,
28,Exporting,"San Antonio, Texas",San Antonio MBDA Export Project ,"The San Antonio MBDA Export Center, which is operated by UTSA’s Institute for Economic Development, provides ethnic minority-owned enterprises (MBEs) with export growth and international business development services to succeed as exporters to Latin America.",https://www.mbda.gov/sites/mbda.gov/files/2018-small-business-profiles-tx.pdf,University of Texas at San Antonio,Albert Salgado,501 West Cesar E. Chavez Boulevard ,San Antonio,TX,78207,78207,Albert.Salgado@utsa.edu,210-458-2742,210-458-2742,210-458-2481,,"501 West Cesar E. Chavez Boulevard, Suite 3.324B",San Antonio,TX,78207,"Alberto Rodriguez-Baez
",Alberto.rodriguezbaez@utsa.edu,210-458-2480,https://www.sanantoniombdacenter.com,
29,General,"San Jose, California",San Jose MBDA Business Center,"San Jose MBDA Business Center is a federally funded project by The U.S. Department of Commerce’s Minority Business Development Agency and ASIAN, Inc. of San Francisco.

The San Jose MBDA Business Center is an entrepreneurially-focused program; our primary objective is to assist the integration and participation of the minority-owned business community in the nation’s economic growth. Understanding that this is a task that requires synergies beyond the efforts of a single organization, we have established a private/public, multi-industry-sector network of buyers, suppliers and service providers that results in a holistic, added value business service to our partners and clients.",https://www.mbda.gov/sites/mbda.gov/files/migrated/files-attachments/California_2016.pdf,"Asian, Incorporated",Lamar Heystek,"1167 Mission Street,                            4th Floor",San Francisco,CA,94103-1544,94103,lheystek@asianinc.org,(415) 928-5910,415-928-5910,415-921-0182,,"3031 Tisch Way, Suite 80",San Jose,CA,95128,Tony Tang,ttang@sanjosembdacenter.com,408-998-8058,https://www.asianinc.org,"in collaboration with ASIAN, Inc."
30,General,"South Bronx, New York",South Bronx MBDA Business Center,"The MBDA South Bronx Minority Business Center is located in the hub of the South Bronx. This Center is operated by the South Bronx Overall Economic Development Corporation (SoBRO), and is funded by the Minority Business Development Agency (MBDA). The Center’s program is designed to provide high-level strategic business consulting services to eligible minority-owned firms that generate revenues of $1 million or more.  The services offer are in the areas of large public and/or private contracts, financing transactions, strategic business consulting, global business development, and export/ import. 

Since its inception, the Center assisted minority business enterprises in facilitating entries into global markets, identified export markets, and overseas market promotion. The Center’s mission, as part of an overarching vision, is to promote growth alternatives through strategic partnerships and teaming arrangements. The Center partners with various organizations to facilitate multi-level transactions with high-value impact on minority-own business expansions, jobs retention, and jobs creation.",https://www.mbda.gov/sites/mbda.gov/files/2018-small-business-profiles-ny.pdf,South Bronx Overall Economic Development Corporation,Lourdes Zapata,"555 Bergen Avenue,                          3rd Floor",Bronx,NY,10455-1368,10455,lzapata@sobro.org,718-292-3113,718-292-3113,718-292-3195,,"555 Bergen Avenue, 3rd Floor",Bronx,NY,10455-1368,Sharon Higgins,shiggins@sobro.org,718-732-7580,https://www.sobro.org,
31,General,"St. Louis, Missouri",St. Louis MBDA Business Center,"The MBDA Business Center located in St. Louis, MO is operated by the Chicago Minority Business Development Council, Incorporated. The center is part of a national network of funded centers located in major cities throughout the United States.

The center works with minority business enterprises to generate increased financing and contract opportunities and to create and retain jobs.

The mission of the center is to strengthen the US economy by helping ethnic minority businesses create or retain jobs, and build economically vibrant socially responsible entrepreneurs, businesses, and communities.",https://www.mbda.gov/sites/mbda.gov/files/2018-small-business-profiles-mo.pdf,"Chicago Minority Business Development Council, Incorporated","David Thomas, Interim ","216 W. Jackson Boulevard, Suite 600",Chicago,IL,60606,60606,dthomas@chicagombdacenter.com,312-755-2563,312-755-2563,312-755-8890,,"911 Washington Avenue, 
Suite 720",St. Louis,MO,63101,Todd Gilyard,Tgilyard@stlouismbdacenter.com,"314-391-4477 (Main)
314-206-3232 (Direct)",https://www.mbda.gov/businesscenters/stlouis,
32,General,"Tacoma, Washington",Tacoma MBDA Business Center,"The MBDA Business Center located in Tacoma, Washington is operated by the City of Tacoma. The center is part of a national network of funded centers located in major cities throughout the United States. The center works with minority business enterprises to generate increased financing and contract opportunities and to create and retain jobs.

The program’s objective is to provide ongoing, quality assistance to minority businesses with rapid growth potential so that they can achieve greater participation in the development of the nation’s commerce.",https://www.mbda.gov/sites/mbda.gov/files/2018-small-business-profiles-wa.pdf,City of Tacoma,Jeffrey Robinson,"747 Market Street,                                  Room 900",Tacoma,W A,98402,98402,jrobinson0509@gmail.com,253-591-5139,253-591-5139,253-591-2002,,"747 Market Street, Room 808",Tacoma,WA,98402,Linda Lee Womack,LWomack@cityofTacoma.org,"253-591-5239 (O)
202-499-0411 (M)
253-591-5180 (F)",https://mbda-tacoma.com/,
33,General,"Washington, DC",Washington DC MBDA Business Center,"The Washington DC Minority Business Development Agency Business Center is operated by the Capital Region Minority Supplier Development Council. The center is part of a national network of funded centers located in major cities throughout the United States. The center works with minority business enterprises to generate increased financing and contract opportunities and to create and retain jobs.

The mission of the center is to strengthen the U.S. economy by helping ethnic minority businesses create or retain jobs, and build economically vibrant socially responsible entrepreneurs, businesses, and communities.",https://www.mbda.gov/sites/mbda.gov/files/2018-small-business-profiles-dc.pdf,Capital Region Minority Supplier Development Council,Sharon Pinder,"10750 Columbia Pike,                                     Suite 200",Silver Spring,MD,20901,20901,sharon.pinder@crmsdc.org,301-593-5861 ,301-593-5861 ,,,10750 Columbia Pike Suite 200,Silver Spring,MD,20901,Dennis Smith ,dsmith@mbdabc-cr.com, 301-242-5320 ,https://www.mbdadc.com,
34,General,"Washington, DC",MBDA Federal Procurement Center Project,"The MBDA Federal Procurement Center, operated by Capital Region Minority Supplier Development Council, provides access to federal procurement officials and prime contractors throughout the region. The Center serves minority-owned firms with annual revenues of more than $1 million. The Center is a part of MBDA’s nationwide services network. It is the first MBDA business center solely focused on federal contracting.

Center representatives closely align with clients to understand their capabilities and unique offerings to the federal government and assist them in developing customized near-term and long-term marketing strategies. The Center’s personnel maintain strong federal agency knowledge, relationships, and contracting expertise.",https://www.mbda.gov/sites/mbda.gov/files/2018-small-business-profiles-md.pdf,Capital Region Minority Supplier Development Council,Sharon Pinder,"10750 Columbia Pike,                                     Suite 200",Silver Spring,MD,20901,20901,sharon.pinder@crmsdc.org,301-593-5861 ,301-593-5861 ,,,"1800 Diagonal Road, Suite 600 ",Alexandria,VA,22314,Tommy Marks,tmarks@mbda-fpc.com,"301-857-0200 
",https://www.mbdafpc.com,
